[gd_scene load_steps=17 format=2]

[ext_resource path="res://demo/Scenes/Bomb.gd" type="Script" id=1]
[ext_resource path="res://demo/Assets/Bomb.scn" type="PackedScene" id=2]
[ext_resource path="res://demo/Assets/Assets_Material.tres" type="Material" id=3]
[ext_resource path="res://demo/Audio/Oliver_Giaradot_Guns_And_Explosions/Bullet_Impact_22.ogg" type="AudioStream" id=4]



[sub_resource type="SphereShape" id=1]

radius = 0.110765

[sub_resource type="ParticlesMaterial" id=2]

render_priority = 0
trail_divisor = 1
emission_shape = 1
emission_sphere_radius = 0.05
flag_align_y = false
flag_rotate_y = false
flag_disable_z = false
spread = 0.0
flatness = 0.0
gravity = Vector3( 0, 1, 0 )
initial_velocity = 0.0
initial_velocity_random = 0.0
angular_velocity = 5.70328e-043
angular_velocity_random = 0.0
linear_accel = 0.0
linear_accel_random = 0.0
radial_accel = 0.0
radial_accel_random = 0.0
tangential_accel = 0.0
tangential_accel_random = 0.0
damping = 0.0
damping_random = 0.0
angle = 0.0
angle_random = 0.0
scale = 1.0
scale_random = 0.0
color = Color( 1, 1, 1, 1 )
hue_variation = 0.0
hue_variation_random = 0.0
anim_speed = 0.0
anim_speed_random = 0.0
anim_offset = 0.0
anim_offset_random = 0.0
anim_loop = false
_sections_unfolded = [ "Emission Shape", "Gravity" ]

[sub_resource type="SpatialMaterial" id=3]

render_priority = 0
flags_transparent = true
flags_unshaded = true
flags_vertex_lighting = false
flags_no_depth_test = false
flags_use_point_size = false
flags_world_triplanar = false
flags_fixed_size = false
flags_albedo_tex_force_srgb = false
vertex_color_use_as_albedo = false
vertex_color_is_srgb = false
params_diffuse_mode = 0
params_specular_mode = 0
params_blend_mode = 0
params_cull_mode = 0
params_depth_draw_mode = 0
params_line_width = 1.0
params_point_size = 1.0
params_billboard_mode = 0
params_grow = false
params_use_alpha_scissor = false
albedo_color = Color( 0.0820313, 0.0820313, 0.0820313, 0.872902 )
metallic = 0.0
metallic_specular = 0.5
metallic_texture_channel = 0
roughness = 0.0
roughness_texture_channel = 0
emission_enabled = false
normal_enabled = false
rim_enabled = false
clearcoat_enabled = false
anisotropy_enabled = false
ao_enabled = false
depth_enabled = false
subsurf_scatter_enabled = false
transmission_enabled = false
refraction_enabled = false
detail_enabled = false
uv1_scale = Vector3( 1, 1, 1 )
uv1_offset = Vector3( 0, 0, 0 )
uv1_triplanar = false
uv1_triplanar_sharpness = 1.0
uv2_scale = Vector3( 1, 1, 1 )
uv2_offset = Vector3( 0, 0, 0 )
uv2_triplanar = false
uv2_triplanar_sharpness = 1.0
proximity_fade_enable = false
distance_fade_enable = false
_sections_unfolded = [ "Albedo" ]

[sub_resource type="CubeMesh" id=4]

material = SubResource( 3 )
custom_aabb = AABB( 0, 0, 0, 0, 0, 0 )
size = Vector3( 0.03, 0.03, 0.03 )
subdivide_width = 0
subdivide_height = 0
subdivide_depth = 0

[sub_resource type="Gradient" id=5]

offsets = PoolRealArray( 0, 0.845833, 1 )
colors = PoolColorArray( 1, 0.955017, 0.476563, 1, 1, 0.212342, 0.0697011, 0.22651, 0, 0, 0, 0 )

[sub_resource type="GradientTexture" id=6]

flags = 4
gradient = SubResource( 5 )
width = 512

[sub_resource type="Curve" id=7]

min_value = 0.0
max_value = 1.0
bake_resolution = 100
_data = [ Vector2( 0, 1 ), 0.0, 0.0, 0, 0, Vector2( 1, 0.59668 ), 0.0, 0.0, 0, 0 ]

[sub_resource type="CurveTexture" id=8]

flags = 4
width = 512
curve = SubResource( 7 )

[sub_resource type="ParticlesMaterial" id=9]

render_priority = 0
trail_divisor = 1
emission_shape = 1
emission_sphere_radius = 0.1
flag_align_y = false
flag_rotate_y = false
flag_disable_z = false
spread = 180.0
flatness = 0.0
gravity = Vector3( 0, 0, 0 )
initial_velocity = 1.7
initial_velocity_random = 0.0
angular_velocity = 0.0
angular_velocity_random = 0.0
linear_accel = 0.0
linear_accel_random = 0.0
radial_accel = 0.4
radial_accel_random = 0.0
tangential_accel = 0.0
tangential_accel_random = 0.0
damping = 0.5
damping_random = 0.1
angle = 0.0
angle_random = 0.0
scale = 1.0
scale_random = 0.0
scale_curve = SubResource( 8 )
color_ramp = SubResource( 6 )
hue_variation = 0.0
hue_variation_random = 0.0
anim_speed = 0.0
anim_speed_random = 0.0
anim_offset = 0.0
anim_offset_random = 0.0
anim_loop = false
_sections_unfolded = [ "Initial Velocity" ]

[sub_resource type="SpatialMaterial" id=10]

render_priority = 0
flags_transparent = true
flags_unshaded = true
flags_vertex_lighting = false
flags_no_depth_test = false
flags_use_point_size = false
flags_world_triplanar = false
flags_fixed_size = false
flags_albedo_tex_force_srgb = false
vertex_color_use_as_albedo = true
vertex_color_is_srgb = false
params_diffuse_mode = 0
params_specular_mode = 0
params_blend_mode = 0
params_cull_mode = 0
params_depth_draw_mode = 0
params_line_width = 1.0
params_point_size = 1.0
params_billboard_mode = 0
params_grow = false
params_use_alpha_scissor = false
albedo_color = Color( 1, 1, 1, 1 )
metallic = 0.0
metallic_specular = 0.5
metallic_texture_channel = 0
roughness = 0.0
roughness_texture_channel = 0
emission_enabled = false
normal_enabled = false
rim_enabled = false
clearcoat_enabled = false
anisotropy_enabled = false
ao_enabled = false
depth_enabled = false
subsurf_scatter_enabled = false
transmission_enabled = false
refraction_enabled = false
detail_enabled = false
uv1_scale = Vector3( 1, 1, 1 )
uv1_offset = Vector3( 0, 0, 0 )
uv1_triplanar = false
uv1_triplanar_sharpness = 1.0
uv2_scale = Vector3( 1, 1, 1 )
uv2_offset = Vector3( 0, 0, 0 )
uv2_triplanar = false
uv2_triplanar_sharpness = 1.0
proximity_fade_enable = false
distance_fade_enable = false
_sections_unfolded = [ "Albedo" ]

[sub_resource type="CubeMesh" id=11]

material = SubResource( 10 )
custom_aabb = AABB( 0, 0, 0, 0, 0, 0 )
size = Vector3( 0.1, 0.1, 0.1 )
subdivide_width = 0
subdivide_height = 0
subdivide_depth = 0

[sub_resource type="SphereShape" id=12]

radius = 2.0

[node name="Bomb" type="RigidBody" index="0"]

input_ray_pickable = true
input_capture_on_drag = false
collision_layer = 1
collision_mask = 1
mode = 0
mass = 1.0
friction = 1.0
bounce = 0.0
gravity_scale = 1.0
custom_integrator = false
continuous_cd = false
contacts_reported = 0
contact_monitor = false
sleeping = false
can_sleep = true
axis_lock_linear_x = false
axis_lock_linear_y = false
axis_lock_linear_z = false
axis_lock_angular_x = false
axis_lock_angular_y = false
axis_lock_angular_z = false
linear_velocity = Vector3( 0, 0, 0 )
linear_damp = -1.0
angular_velocity = Vector3( 0, 0, 0 )
angular_damp = -1.0
script = ExtResource( 1 )

[node name="CollisionShape" type="CollisionShape" parent="." index="0"]

shape = SubResource( 1 )
disabled = false

[node name="Fuse_Particles" type="Particles" parent="." index="1"]

transform = Transform( 1, 0, 0, 0, 1, 0, 0, 0, 1, 0, 0.118214, 0 )
layers = 1
material_override = null
cast_shadow = 1
extra_cull_margin = 0.0
use_in_baked_light = false
lod_min_distance = 0.0
lod_min_hysteresis = 0.0
lod_max_distance = 0.0
lod_max_hysteresis = 0.0
emitting = false
amount = 14
lifetime = 0.5
one_shot = false
preprocess = 0.0
speed_scale = 1.0
explosiveness = 0.0
randomness = 0.0
fixed_fps = 0
fract_delta = true
visibility_aabb = AABB( -4, -4, -4, 8, 8, 8 )
local_coords = true
draw_order = 0
process_material = SubResource( 2 )
draw_passes = 1
draw_pass_1 = SubResource( 4 )
_sections_unfolded = [ "Draw Passes", "Time" ]

[node name="Bomb" parent="." index="2" instance=ExtResource( 2 )]

transform = Transform( 1, 0, 0, 0, 1, 0, 0, 0, 1, 0, 0, 0 )
material/0 = ExtResource( 3 )
_sections_unfolded = [ "Transform", "material" ]

[node name="Explosion_Particles" type="Particles" parent="." index="3"]

layers = 1
material_override = null
cast_shadow = 1
extra_cull_margin = 0.0
use_in_baked_light = false
lod_min_distance = 0.0
lod_min_hysteresis = 0.0
lod_max_distance = 0.0
lod_max_hysteresis = 0.0
emitting = false
amount = 48
lifetime = 0.75
one_shot = true
preprocess = 0.0
speed_scale = 1.0
explosiveness = 1.0
randomness = 0.4
fixed_fps = 0
fract_delta = true
visibility_aabb = AABB( -4, -4, -4, 8, 8, 8 )
local_coords = true
draw_order = 0
process_material = SubResource( 9 )
draw_passes = 1
draw_pass_1 = SubResource( 11 )
_sections_unfolded = [ "Process Material", "Time" ]

[node name="Area" type="Area" parent="." index="4"]

input_ray_pickable = false
input_capture_on_drag = false
space_override = 0
gravity_point = false
gravity_distance_scale = 0.0
gravity_vec = Vector3( 0, -1, 0 )
gravity = 9.8
linear_damp = 0.1
angular_damp = 1.0
priority = 0.0
monitoring = true
monitorable = true
collision_layer = 1
collision_mask = 1
audio_bus_override = false
audio_bus_name = "Master"
reverb_bus_enable = false
reverb_bus_name = "Master"
reverb_bus_amount = 0.0
reverb_bus_uniformity = 0.0

[node name="CollisionShape" type="CollisionShape" parent="Area" index="0"]

shape = SubResource( 12 )
disabled = false

[node name="AudioStreamPlayer3D" type="AudioStreamPlayer3D" parent="." index="5"]

stream = ExtResource( 4 )
attenuation_model = 0
unit_db = 1.5
unit_size = 1.0
max_db = 3.0
pitch_scale = 1.0
autoplay = false
max_distance = 0.0
out_of_range_mode = 0
bus = "Master"
area_mask = 1
emission_angle_enabled = false
emission_angle_degrees = 45.0
emission_angle_filter_attenuation_db = -12.0
attenuation_filter_cutoff_hz = 5000.0
attenuation_filter_db = -24.0
doppler_tracking = 0


